multiplication.vcd
$comment
Copyright (C) 1991-2010 Altera Corporation
Your use of Altera Corporation's design tools, logic functions 
and other software and tools, and its AMPP partner logic 
functions, and any output files from any of the foregoing 
(including device programming or simulation files), and any 
associated documentation or information are expressly subject 
to the terms and conditions of the Altera Program License 
Subscription Agreement, Altera MegaCore Function License 
Agreement, or other applicable license agreement, including, 
without limitation, that your use is for the sole purpose of 
programming logic devices manufactured by Altera and sold by 
Altera or its authorized distributors.  Please refer to the 
applicable agreement for further details.
$end

$date 
  12/02/2023 11:34:51 
$end
$version 
 QUARTUS_VCD_EXPORT 1.0 
$end
$timescale
  1 ps
$end
$scope module Multiplication $end
$var reg 1 ! Clk $end
$var reg 3 " Mode[2:0] $end
$var reg 1 # Rst $end
$var reg 2 $ Status_Out[1:0] $end
$var reg 32 % debugout[31:0] $end
$var reg 41 & Multi_Out[40:0] $end
$var reg 41 ' P[40:0] $end
$var reg 41 ( Q[40:0] $end
$upscope $end
$enddefinitions $end
#0
$dumpvars
0!
b0 "
0#
b0 $
b1 %
b0 &
b1100011 '
b1010 (
$end
#500
1!
#1000
0!
#1500
1!
#2000
0!
#2500
1!
#3000
0!
#3500
1!
#4000
0!
#4500
1!
#5000
0!
#5500
1!
#6000
0!
#6500
1!
#7000
0!
#7500
1!
#8000
0!
#8500
1!
#9000
0!
#9500
1!
#10000
0!
b11 "
#10500
1!
b10 %
#11000
0!
#11500
1!
b100 %
#12000
0!
#12500
1!
b110 %
#13000
0!
#13500
1!
b111 %
#14000
0!
#14500
1!
b1110 %
#15000
0!
#15500
1!
b1111 %
#16000
0!
#16500
1!
b10000 %
#17000
0!
#17500
1!
b10001 %
#18000
0!
#18500
1!
b11 %
#19000
0!
#19500
1!
b101 %
#20000
0!
#20500
1!
b110 %
#21000
0!
#21500
1!
b111 %
#22000
0!
#22500
1!
b1000 %
